;;;;;;;;;;;;;;;;;;;;;;;;;
;;;;;;;;;;;;;;;;;;;;;;;;;
;Hål #;X pos;Y pos;;boot center;;;;;;;;;;;;;;;;;;;;
;1;206;15;;x0 y0;;;;;;;;;;;;;;;;;;;;
;2;206;-15;;;;;;;;;;;;;;;;;;;;;;
;3;111;-15;;Boot size;;;;;;;;;;;;;;;;;;;;
;4;111;15;;0;;;;;;;;;;;;;;;;;;;;
;5;-84,7;15;;;;;;;;;;;;;;;;;;;;;;
;6;-84,7;-15;;Brand;;;;;;;;;;;;;;;;;;;;
;7;-198,6;-15;;Vist;;;;;;;;;;;;;;;;;;;;
;8;-198,6;15;;Binding name;;;;;;;;;;;;;;;;;;;;
;;;;;VJ Plate L;;;;;;;;;;;;;;;;;;;;
